…
```r
ScrabbleData
```

```
## # A tibble: 1,542,642 × 19
##    gameid tourneyid tie   winnerid winnername          winnerscore winneroldrating
##     <dbl>     <dbl> <lgl>    <dbl> <chr>                     <dbl>           <dbl>
##  1      1         1 FALSE      268 Harriette Lakernick           0            1568
##  2      2         1 FALSE      268 Harriette Lakernick           0            1568
##  3      3         1 FALSE      268 Harriette Lakernick           0            1568
##  4      4         1 FALSE      268 Harriette Lakernick           0            1568
##  5      5         1 FALSE      268 Harriette Lakernick           0            1568
##  6      6         1 FALSE      268 Harriette Lakernick           0            1568
##  7      7         1 FALSE      268 Harriette Lakernick           0            1568
##  8      8         1 FALSE      268 Harriette Lakernick           0            1568
##  9      9         1 FALSE      429 Patricia Barrett              0            1915
## 10     10         1 FALSE      429 Patricia Barrett              0            1915
## # … with 1,542,632 more rows, and 12 more variables: winnernewrating <dbl>,
## #   winnerpos <dbl>, loserid <dbl>, losername <chr>, loserscore <dbl>,
## #   loseroldrating <dbl>, losernewrating <dbl>, loserpos <dbl>, round <dbl>,
## #   division <dbl>, date <date>, lexicon <lgl>
```
