…
```r
library(ggrepel)
```

#### 2. Which origin airport is best to minimize my chances of a late arrival when I am using Delta Airline?

```r
lowest_late_arrival <- flights %>%
  filter(carrier == "DL")
lowest_late_arrival
```

```
## # A tibble: 48,110 × 19
##     year month   day dep_time sched_dep_time dep_delay arr_time sched_arr_time
##    <int> <int> <int>    <int>          <int>     <dbl>    <int>          <int>
##  1  2013     1     1      554            600        -6      812            837
##  2  2013     1     1      602            610        -8      812            820
##  3  2013     1     1      606            610        -4      837            845
##  4  2013     1     1      615            615         0      833            842
##  5  2013     1     1      653            700        -7      936           1009
##  6  2013     1     1      655            655         0     1021           1030
##  7  2013     1     1      655            700        -5     1037           1045
##  8  2013     1     1      655            700        -5     1002           1020
##  9  2013     1     1      657            700        -3      959           1013
## 10  2013     1     1      658            700        -2      944            939
## # … with 48,100 more rows, and 11 more variables: arr_delay <dbl>,
## #   carrier <chr>, flight <int>, tailnum <chr>, origin <chr>, dest <chr>,
## #   air_time <dbl>, distance <dbl>, hour <dbl>, minute <dbl>, time_hour <dttm>
```
…
